1D, Reduce pattern = 0, is allreduce = True, B = 1, P = 512, time = 111675875409011
minimum start = 148154566879604, maximum start = 259830442284751
1D, Reduce pattern = 0, is allreduce = True, B = 2, P = 512, time = 111675875409015
minimum start = 148271890170040, maximum start = 259947765575188
1D, Reduce pattern = 0, is allreduce = True, B = 4, P = 512, time = 111675875409019
minimum start = 148391345619828, maximum start = 260067221024974
1D, Reduce pattern = 0, is allreduce = True, B = 8, P = 512, time = 111675875409035
minimum start = 148510237614142, maximum start = 260186113019290
1D, Reduce pattern = 0, is allreduce = True, B = 16, P = 512, time = 111675875409063
minimum start = 148625553835727, maximum start = 260301429240876
1D, Reduce pattern = 0, is allreduce = True, B = 32, P = 512, time = 111675875409114
minimum start = 148744013379094, maximum start = 260419888784242
1D, Reduce pattern = 0, is allreduce = True, B = 64, P = 512, time = 111675875409219
minimum start = 148863653137710, maximum start = 260539528542858
1D, Reduce pattern = 0, is allreduce = True, B = 128, P = 512, time = 111675875409433
minimum start = 148984110978188, maximum start = 260659986383335
1D, Reduce pattern = 0, is allreduce = True, B = 256, P = 512, time = 111675875409848
minimum start = 149103495565062, maximum start = 260779370970209
1D, Reduce pattern = 0, is allreduce = True, B = 512, P = 512, time = 111675875410669
minimum start = 149223686524399, maximum start = 260899561929546
1D, Reduce pattern = 0, is allreduce = True, B = 1024, P = 512, time = 111675875412256
minimum start = 149341887286657, maximum start = 261017762691804
1D, Reduce pattern = 0, is allreduce = True, B = 2048, P = 512, time = 111675875415287
minimum start = 149462551837623, maximum start = 261138427242770
1D, Reduce pattern = 0, is allreduce = True, B = 4096, P = 512, time = 111675875421016
minimum start = 149586192089997, maximum start = 261262067495143
