Bcast, B = 1, P = 512, time = 6389
Bcast, B = 1, P = 512, time = 6389
Bcast, B = 2, P = 512, time = 6390
Bcast, B = 2, P = 512, time = 6390
Bcast, B = 4, P = 512, time = 6411
Bcast, B = 4, P = 512, time = 6411
Bcast, B = 8, P = 512, time = 6485
Bcast, B = 8, P = 512, time = 6481
Bcast, B = 16, P = 512, time = 6596
Bcast, B = 16, P = 512, time = 6604
Bcast, B = 32, P = 512, time = 6806
Bcast, B = 32, P = 512, time = 6811
Bcast, B = 64, P = 512, time = 7255
Bcast, B = 64, P = 512, time = 7253
Bcast, B = 128, P = 512, time = 8106
Bcast, B = 128, P = 512, time = 8095
Bcast, B = 256, P = 512, time = 9645
Bcast, B = 256, P = 512, time = 9661
Bcast, B = 512, P = 512, time = 12291
Bcast, B = 512, P = 512, time = 12250
Bcast, B = 1024, P = 512, time = 17508
Bcast, B = 1024, P = 512, time = 17530
Bcast, B = 2048, P = 512, time = 28530
Bcast, B = 2048, P = 512, time = 28582
Bcast, B = 4096, P = 512, time = 50761
Bcast, B = 4096, P = 512, time = 50769
Bcast, B = 256, P = 4, time = 2862
Bcast, B = 256, P = 4, time = 2839
Bcast, B = 256, P = 8, time = 2996
Bcast, B = 256, P = 8, time = 3005
Bcast, B = 256, P = 16, time = 3206
Bcast, B = 256, P = 16, time = 3255
Bcast, B = 256, P = 32, time = 3475
Bcast, B = 256, P = 32, time = 3470
Bcast, B = 256, P = 64, time = 3939
Bcast, B = 256, P = 64, time = 3951
Bcast, B = 256, P = 128, time = 4821
Bcast, B = 256, P = 128, time = 4810
Bcast, B = 256, P = 256, time = 6455
Bcast, B = 256, P = 256, time = 6445
Bcast, B = 256, P = 512, time = 9672
Bcast, B = 256, P = 512, time = 9680
