1D, Reduce pattern = 0, is allreduce = True, B = 1, P = 512, time = 3319
minimum start = 18697, maximum start = 18770
1D, Reduce pattern = 0, is allreduce = True, B = 1, P = 512, time = 3319
minimum start = 18658, maximum start = 18744
1D, Reduce pattern = 0, is allreduce = True, B = 2, P = 512, time = 3320
minimum start = 18706, maximum start = 18777
1D, Reduce pattern = 0, is allreduce = True, B = 2, P = 512, time = 3320
minimum start = 18686, maximum start = 18746
1D, Reduce pattern = 0, is allreduce = True, B = 4, P = 512, time = 3322
minimum start = 18679, maximum start = 18755
1D, Reduce pattern = 0, is allreduce = True, B = 4, P = 512, time = 3322
minimum start = 18690, maximum start = 18764
1D, Reduce pattern = 0, is allreduce = True, B = 8, P = 512, time = 3326
minimum start = 18675, maximum start = 18728
1D, Reduce pattern = 0, is allreduce = True, B = 8, P = 512, time = 3326
minimum start = 18690, maximum start = 18751
1D, Reduce pattern = 0, is allreduce = True, B = 16, P = 512, time = 3336
minimum start = 18693, maximum start = 18731
1D, Reduce pattern = 0, is allreduce = True, B = 16, P = 512, time = 3337
minimum start = 18681, maximum start = 18742
1D, Reduce pattern = 0, is allreduce = True, B = 32, P = 512, time = 3354
minimum start = 18678, maximum start = 18743
1D, Reduce pattern = 0, is allreduce = True, B = 32, P = 512, time = 3355
minimum start = 18689, maximum start = 18761
1D, Reduce pattern = 0, is allreduce = True, B = 64, P = 512, time = 3390
minimum start = 18670, maximum start = 18749
1D, Reduce pattern = 0, is allreduce = True, B = 64, P = 512, time = 3393
minimum start = 18668, maximum start = 18732
1D, Reduce pattern = 0, is allreduce = True, B = 128, P = 512, time = 3463
minimum start = 18695, maximum start = 18759
1D, Reduce pattern = 0, is allreduce = True, B = 128, P = 512, time = 3462
minimum start = 18687, maximum start = 18748
1D, Reduce pattern = 0, is allreduce = True, B = 256, P = 512, time = 3607
minimum start = 18685, maximum start = 18759
1D, Reduce pattern = 0, is allreduce = True, B = 256, P = 512, time = 3603
minimum start = 18710, maximum start = 18774
1D, Reduce pattern = 0, is allreduce = True, B = 512, P = 512, time = 3890
minimum start = 18686, maximum start = 18759
1D, Reduce pattern = 0, is allreduce = True, B = 512, P = 512, time = 3897
minimum start = 18704, maximum start = 18756
1D, Reduce pattern = 0, is allreduce = True, B = 1024, P = 512, time = 4458
minimum start = 18695, maximum start = 18753
1D, Reduce pattern = 0, is allreduce = True, B = 1024, P = 512, time = 4460
minimum start = 18708, maximum start = 18783
1D, Reduce pattern = 0, is allreduce = True, B = 2048, P = 512, time = 5596
minimum start = 18701, maximum start = 18754
1D, Reduce pattern = 0, is allreduce = True, B = 2048, P = 512, time = 5594
minimum start = 18701, maximum start = 18754
1D, Reduce pattern = 0, is allreduce = True, B = 4096, P = 512, time = 7869
minimum start = 18677, maximum start = 18741
1D, Reduce pattern = 0, is allreduce = True, B = 4096, P = 512, time = 7872
minimum start = 18687, maximum start = 18756
1D, Reduce pattern = 1, is allreduce = True, B = 1, P = 512, time = 991
minimum start = 18706, maximum start = 18775
1D, Reduce pattern = 1, is allreduce = True, B = 1, P = 512, time = 991
minimum start = 18714, maximum start = 18788
1D, Reduce pattern = 1, is allreduce = True, B = 2, P = 512, time = 990
minimum start = 18707, maximum start = 18787
1D, Reduce pattern = 1, is allreduce = True, B = 2, P = 512, time = 990
minimum start = 18705, maximum start = 18796
1D, Reduce pattern = 1, is allreduce = True, B = 4, P = 512, time = 992
minimum start = 18711, maximum start = 18781
1D, Reduce pattern = 1, is allreduce = True, B = 4, P = 512, time = 992
minimum start = 18689, maximum start = 18767
1D, Reduce pattern = 1, is allreduce = True, B = 8, P = 512, time = 996
minimum start = 18700, maximum start = 18762
1D, Reduce pattern = 1, is allreduce = True, B = 8, P = 512, time = 996
minimum start = 18710, maximum start = 18793
1D, Reduce pattern = 1, is allreduce = True, B = 16, P = 512, time = 1006
minimum start = 18734, maximum start = 18780
1D, Reduce pattern = 1, is allreduce = True, B = 16, P = 512, time = 1005
minimum start = 18689, maximum start = 18772
1D, Reduce pattern = 1, is allreduce = True, B = 32, P = 512, time = 1023
minimum start = 18722, maximum start = 18773
1D, Reduce pattern = 1, is allreduce = True, B = 32, P = 512, time = 1026
minimum start = 18684, maximum start = 18756
1D, Reduce pattern = 1, is allreduce = True, B = 64, P = 512, time = 1089
minimum start = 18683, maximum start = 18756
1D, Reduce pattern = 1, is allreduce = True, B = 64, P = 512, time = 1090
minimum start = 18711, maximum start = 18788
1D, Reduce pattern = 1, is allreduce = True, B = 128, P = 512, time = 1236
minimum start = 18721, maximum start = 18777
1D, Reduce pattern = 1, is allreduce = True, B = 128, P = 512, time = 1237
minimum start = 18722, maximum start = 18804
1D, Reduce pattern = 1, is allreduce = True, B = 256, P = 512, time = 1524
minimum start = 18701, maximum start = 18752
1D, Reduce pattern = 1, is allreduce = True, B = 256, P = 512, time = 1522
minimum start = 18736, maximum start = 18791
1D, Reduce pattern = 1, is allreduce = True, B = 512, P = 512, time = 2096
minimum start = 18714, maximum start = 18796
1D, Reduce pattern = 1, is allreduce = True, B = 512, P = 512, time = 2092
minimum start = 18700, maximum start = 18788
1D, Reduce pattern = 1, is allreduce = True, B = 1024, P = 512, time = 3240
minimum start = 18702, maximum start = 18763
1D, Reduce pattern = 1, is allreduce = True, B = 1024, P = 512, time = 3226
minimum start = 18690, maximum start = 18767
1D, Reduce pattern = 1, is allreduce = True, B = 2048, P = 512, time = 5507
minimum start = 18712, maximum start = 18781
1D, Reduce pattern = 1, is allreduce = True, B = 2048, P = 512, time = 5502
minimum start = 18700, maximum start = 18789
1D, Reduce pattern = 1, is allreduce = True, B = 4096, P = 512, time = 10043
minimum start = 18715, maximum start = 18780
1D, Reduce pattern = 1, is allreduce = True, B = 4096, P = 512, time = 10047
minimum start = 18697, maximum start = 18760
1D, Reduce pattern = 2, is allreduce = True, B = 1, P = 512, time = 826
minimum start = 18748, maximum start = 18832
1D, Reduce pattern = 2, is allreduce = True, B = 1, P = 512, time = 826
minimum start = 18736, maximum start = 18820
1D, Reduce pattern = 2, is allreduce = True, B = 2, P = 512, time = 816
minimum start = 18730, maximum start = 18793
1D, Reduce pattern = 2, is allreduce = True, B = 2, P = 512, time = 816
minimum start = 18752, maximum start = 18821
1D, Reduce pattern = 2, is allreduce = True, B = 4, P = 512, time = 819
minimum start = 18739, maximum start = 18823
1D, Reduce pattern = 2, is allreduce = True, B = 4, P = 512, time = 819
minimum start = 18731, maximum start = 18820
1D, Reduce pattern = 2, is allreduce = True, B = 8, P = 512, time = 836
minimum start = 18711, maximum start = 18787
1D, Reduce pattern = 2, is allreduce = True, B = 8, P = 512, time = 836
minimum start = 18731, maximum start = 18806
1D, Reduce pattern = 2, is allreduce = True, B = 16, P = 512, time = 892
minimum start = 18721, maximum start = 18792
1D, Reduce pattern = 2, is allreduce = True, B = 16, P = 512, time = 892
minimum start = 18730, maximum start = 18812
1D, Reduce pattern = 2, is allreduce = True, B = 32, P = 512, time = 998
minimum start = 18728, maximum start = 18784
1D, Reduce pattern = 2, is allreduce = True, B = 32, P = 512, time = 998
minimum start = 18729, maximum start = 18803
1D, Reduce pattern = 2, is allreduce = True, B = 64, P = 512, time = 1221
minimum start = 18712, maximum start = 18792
1D, Reduce pattern = 2, is allreduce = True, B = 64, P = 512, time = 1222
minimum start = 18744, maximum start = 18800
1D, Reduce pattern = 2, is allreduce = True, B = 128, P = 512, time = 1725
minimum start = 18719, maximum start = 18787
1D, Reduce pattern = 2, is allreduce = True, B = 128, P = 512, time = 1724
minimum start = 18714, maximum start = 18789
1D, Reduce pattern = 2, is allreduce = True, B = 256, P = 512, time = 2931
minimum start = 18718, maximum start = 18777
1D, Reduce pattern = 2, is allreduce = True, B = 256, P = 512, time = 2967
minimum start = 18757, maximum start = 18837
1D, Reduce pattern = 2, is allreduce = True, B = 512, P = 512, time = 5743
minimum start = 18746, maximum start = 18823
1D, Reduce pattern = 2, is allreduce = True, B = 512, P = 512, time = 5305
minimum start = 18753, maximum start = 18835
1D, Reduce pattern = 2, is allreduce = True, B = 1024, P = 512, time = 10416
minimum start = 18730, maximum start = 18806
1D, Reduce pattern = 2, is allreduce = True, B = 1024, P = 512, time = 11301
minimum start = 18717, maximum start = 18789
1D, Reduce pattern = 2, is allreduce = True, B = 2048, P = 512, time = 22408
minimum start = 18738, maximum start = 18793
1D, Reduce pattern = 2, is allreduce = True, B = 2048, P = 512, time = 22432
minimum start = 18739, maximum start = 18819
1D, Reduce pattern = 2, is allreduce = True, B = 4096, P = 512, time = 44714
minimum start = 18709, maximum start = 18777
1D, Reduce pattern = 2, is allreduce = True, B = 4096, P = 512, time = 41075
minimum start = 18721, maximum start = 18789
1D, Reduce pattern = 3, is allreduce = True, B = 1, P = 512, time = 2346
minimum start = 18713, maximum start = 18765
1D, Reduce pattern = 3, is allreduce = True, B = 1, P = 512, time = 2349
minimum start = 18708, maximum start = 18763
1D, Reduce pattern = 3, is allreduce = True, B = 2, P = 512, time = 8235
minimum start = 18705, maximum start = 18768
1D, Reduce pattern = 3, is allreduce = True, B = 2, P = 512, time = 8254
minimum start = 18675, maximum start = 18761
1D, Reduce pattern = 3, is allreduce = True, B = 4, P = 512, time = 9269
minimum start = 18685, maximum start = 18752
1D, Reduce pattern = 3, is allreduce = True, B = 4, P = 512, time = 9262
minimum start = 18707, maximum start = 18769
1D, Reduce pattern = 3, is allreduce = True, B = 8, P = 512, time = 11282
minimum start = 18718, maximum start = 18761
1D, Reduce pattern = 3, is allreduce = True, B = 8, P = 512, time = 11275
minimum start = 18686, maximum start = 18735
1D, Reduce pattern = 3, is allreduce = True, B = 16, P = 512, time = 16430
minimum start = 18675, maximum start = 18753
1D, Reduce pattern = 3, is allreduce = True, B = 16, P = 512, time = 16384
minimum start = 18701, maximum start = 18745
1D, Reduce pattern = 3, is allreduce = True, B = 32, P = 512, time = 25432
minimum start = 18702, maximum start = 18752
1D, Reduce pattern = 3, is allreduce = True, B = 32, P = 512, time = 25476
minimum start = 18707, maximum start = 18778
1D, Reduce pattern = 3, is allreduce = True, B = 64, P = 512, time = 42985
minimum start = 18695, maximum start = 18768
1D, Reduce pattern = 3, is allreduce = True, B = 64, P = 512, time = 42978
minimum start = 18690, maximum start = 18757
1D, Reduce pattern = 3, is allreduce = True, B = 128, P = 512, time = 79763
minimum start = 18735, maximum start = 18783
1D, Reduce pattern = 3, is allreduce = True, B = 128, P = 512, time = 79774
minimum start = 18699, maximum start = 18757
1D, Reduce pattern = 3, is allreduce = True, B = 256, P = 512, time = 152774
minimum start = 18715, maximum start = 18774
1D, Reduce pattern = 3, is allreduce = True, B = 256, P = 512, time = 152989
minimum start = 18677, maximum start = 18724
1D, Reduce pattern = 3, is allreduce = True, B = 512, P = 512, time = 329466
minimum start = 18691, maximum start = 18754
1D, Reduce pattern = 3, is allreduce = True, B = 512, P = 512, time = 328708
minimum start = 18693, maximum start = 18745
1D, Reduce pattern = 3, is allreduce = True, B = 1024, P = 512, time = 706870
minimum start = 18696, maximum start = 18773
1D, Reduce pattern = 3, is allreduce = True, B = 1024, P = 512, time = 707345
minimum start = 18689, maximum start = 18761
1D, Reduce pattern = 3, is allreduce = True, B = 2048, P = 512, time = 1415679
minimum start = 18694, maximum start = 18759
1D, Reduce pattern = 3, is allreduce = True, B = 2048, P = 512, time = 1415694
minimum start = 18687, maximum start = 18763
1D, Reduce pattern = 3, is allreduce = True, B = 4096, P = 512, time = 2698651
minimum start = 18667, maximum start = 18749
1D, Reduce pattern = 3, is allreduce = True, B = 4096, P = 512, time = 2699307
minimum start = 18717, maximum start = 18791
1D, Reduce pattern = 0, is allreduce = True, B = 1, P = 512, time = 3865
minimum start = 18700, maximum start = 18763
1D, Reduce pattern = 0, is allreduce = True, B = 1, P = 512, time = 3865
minimum start = 18669, maximum start = 18735
1D, Reduce pattern = 0, is allreduce = True, B = 2, P = 512, time = 3868
minimum start = 18669, maximum start = 18705
1D, Reduce pattern = 0, is allreduce = True, B = 2, P = 512, time = 3868
minimum start = 18688, maximum start = 18735
1D, Reduce pattern = 0, is allreduce = True, B = 4, P = 512, time = 3872
minimum start = 18681, maximum start = 18737
1D, Reduce pattern = 0, is allreduce = True, B = 4, P = 512, time = 3872
minimum start = 18686, maximum start = 18750
1D, Reduce pattern = 0, is allreduce = True, B = 8, P = 512, time = 3880
minimum start = 18716, maximum start = 18765
1D, Reduce pattern = 0, is allreduce = True, B = 8, P = 512, time = 3880
minimum start = 18676, maximum start = 18749
1D, Reduce pattern = 0, is allreduce = True, B = 16, P = 512, time = 3903
minimum start = 18693, maximum start = 18760
1D, Reduce pattern = 0, is allreduce = True, B = 16, P = 512, time = 3903
minimum start = 18687, maximum start = 18761
1D, Reduce pattern = 0, is allreduce = True, B = 32, P = 512, time = 3937
minimum start = 18696, maximum start = 18746
1D, Reduce pattern = 0, is allreduce = True, B = 32, P = 512, time = 3941
minimum start = 18685, maximum start = 18741
1D, Reduce pattern = 0, is allreduce = True, B = 64, P = 512, time = 4016
minimum start = 18686, maximum start = 18752
1D, Reduce pattern = 0, is allreduce = True, B = 64, P = 512, time = 4015
minimum start = 18676, maximum start = 18753
1D, Reduce pattern = 0, is allreduce = True, B = 128, P = 512, time = 4173
minimum start = 18705, maximum start = 18750
1D, Reduce pattern = 0, is allreduce = True, B = 128, P = 512, time = 4164
minimum start = 18688, maximum start = 18778
1D, Reduce pattern = 0, is allreduce = True, B = 256, P = 512, time = 4457
minimum start = 18692, maximum start = 18762
1D, Reduce pattern = 0, is allreduce = True, B = 256, P = 512, time = 4468
minimum start = 18706, maximum start = 18776
1D, Reduce pattern = 0, is allreduce = True, B = 512, P = 512, time = 5031
minimum start = 18684, maximum start = 18733
1D, Reduce pattern = 0, is allreduce = True, B = 512, P = 512, time = 5030
minimum start = 18697, maximum start = 18755
1D, Reduce pattern = 0, is allreduce = True, B = 1024, P = 512, time = 6141
minimum start = 18675, maximum start = 18751
1D, Reduce pattern = 0, is allreduce = True, B = 1024, P = 512, time = 6152
minimum start = 18702, maximum start = 18761
1D, Reduce pattern = 0, is allreduce = True, B = 2048, P = 512, time = 8352
minimum start = 18682, maximum start = 18751
1D, Reduce pattern = 0, is allreduce = True, B = 2048, P = 512, time = 8356
minimum start = 18687, maximum start = 18761
1D, Reduce pattern = 0, is allreduce = True, B = 4096, P = 512, time = 12837
minimum start = 18702, maximum start = 18753
1D, Reduce pattern = 0, is allreduce = True, B = 4096, P = 512, time = 12842
minimum start = 18688, maximum start = 18747
1D, Reduce pattern = 1, is allreduce = True, B = 1, P = 512, time = 1536
minimum start = 18730, maximum start = 18801
1D, Reduce pattern = 1, is allreduce = True, B = 1, P = 512, time = 1536
minimum start = 18696, maximum start = 18776
1D, Reduce pattern = 1, is allreduce = True, B = 2, P = 512, time = 1540
minimum start = 18714, maximum start = 18775
1D, Reduce pattern = 1, is allreduce = True, B = 2, P = 512, time = 1540
minimum start = 18709, maximum start = 18777
1D, Reduce pattern = 1, is allreduce = True, B = 4, P = 512, time = 1544
minimum start = 18693, maximum start = 18776
1D, Reduce pattern = 1, is allreduce = True, B = 4, P = 512, time = 1544
minimum start = 18705, maximum start = 18776
1D, Reduce pattern = 1, is allreduce = True, B = 8, P = 512, time = 1552
minimum start = 18723, maximum start = 18802
1D, Reduce pattern = 1, is allreduce = True, B = 8, P = 512, time = 1552
minimum start = 18711, maximum start = 18773
1D, Reduce pattern = 1, is allreduce = True, B = 16, P = 512, time = 1574
minimum start = 18699, maximum start = 18777
1D, Reduce pattern = 1, is allreduce = True, B = 16, P = 512, time = 1576
minimum start = 18707, maximum start = 18787
1D, Reduce pattern = 1, is allreduce = True, B = 32, P = 512, time = 1611
minimum start = 18718, maximum start = 18799
1D, Reduce pattern = 1, is allreduce = True, B = 32, P = 512, time = 1613
minimum start = 18724, maximum start = 18786
1D, Reduce pattern = 1, is allreduce = True, B = 64, P = 512, time = 1718
minimum start = 18699, maximum start = 18785
1D, Reduce pattern = 1, is allreduce = True, B = 64, P = 512, time = 1716
minimum start = 18755, maximum start = 18852
1D, Reduce pattern = 1, is allreduce = True, B = 128, P = 512, time = 1935
minimum start = 18720, maximum start = 18775
1D, Reduce pattern = 1, is allreduce = True, B = 128, P = 512, time = 1933
minimum start = 18709, maximum start = 18795
1D, Reduce pattern = 1, is allreduce = True, B = 256, P = 512, time = 2366
minimum start = 18705, maximum start = 18796
1D, Reduce pattern = 1, is allreduce = True, B = 256, P = 512, time = 2373
minimum start = 18720, maximum start = 18791
1D, Reduce pattern = 1, is allreduce = True, B = 512, P = 512, time = 3226
minimum start = 18713, maximum start = 18761
1D, Reduce pattern = 1, is allreduce = True, B = 512, P = 512, time = 3234
minimum start = 18707, maximum start = 18778
1D, Reduce pattern = 1, is allreduce = True, B = 1024, P = 512, time = 4945
minimum start = 18676, maximum start = 18751
1D, Reduce pattern = 1, is allreduce = True, B = 1024, P = 512, time = 4924
minimum start = 18694, maximum start = 18746
1D, Reduce pattern = 1, is allreduce = True, B = 2048, P = 512, time = 8321
minimum start = 18681, maximum start = 18766
1D, Reduce pattern = 1, is allreduce = True, B = 2048, P = 512, time = 8320
minimum start = 18707, maximum start = 18782
1D, Reduce pattern = 1, is allreduce = True, B = 4096, P = 512, time = 15034
minimum start = 18719, maximum start = 18774
1D, Reduce pattern = 1, is allreduce = True, B = 4096, P = 512, time = 15060
minimum start = 18714, maximum start = 18775
1D, Reduce pattern = 2, is allreduce = True, B = 1, P = 512, time = 1372
minimum start = 18751, maximum start = 18841
1D, Reduce pattern = 2, is allreduce = True, B = 1, P = 512, time = 1372
minimum start = 18766, maximum start = 18843
1D, Reduce pattern = 2, is allreduce = True, B = 2, P = 512, time = 1366
minimum start = 18743, maximum start = 18831
1D, Reduce pattern = 2, is allreduce = True, B = 2, P = 512, time = 1366
minimum start = 18729, maximum start = 18804
1D, Reduce pattern = 2, is allreduce = True, B = 4, P = 512, time = 1371
minimum start = 18726, maximum start = 18794
1D, Reduce pattern = 2, is allreduce = True, B = 4, P = 512, time = 1371
minimum start = 18746, maximum start = 18807
1D, Reduce pattern = 2, is allreduce = True, B = 8, P = 512, time = 1395
minimum start = 18714, maximum start = 18787
1D, Reduce pattern = 2, is allreduce = True, B = 8, P = 512, time = 1395
minimum start = 18728, maximum start = 18820
1D, Reduce pattern = 2, is allreduce = True, B = 16, P = 512, time = 1456
minimum start = 18730, maximum start = 18815
1D, Reduce pattern = 2, is allreduce = True, B = 16, P = 512, time = 1461
minimum start = 18763, maximum start = 18839
1D, Reduce pattern = 2, is allreduce = True, B = 32, P = 512, time = 1587
minimum start = 18724, maximum start = 18802
1D, Reduce pattern = 2, is allreduce = True, B = 32, P = 512, time = 1588
minimum start = 18720, maximum start = 18793
1D, Reduce pattern = 2, is allreduce = True, B = 64, P = 512, time = 1836
minimum start = 18733, maximum start = 18811
1D, Reduce pattern = 2, is allreduce = True, B = 64, P = 512, time = 1844
minimum start = 18741, maximum start = 18821
1D, Reduce pattern = 2, is allreduce = True, B = 128, P = 512, time = 2435
minimum start = 18737, maximum start = 18824
1D, Reduce pattern = 2, is allreduce = True, B = 128, P = 512, time = 2421
minimum start = 18762, maximum start = 18843
1D, Reduce pattern = 2, is allreduce = True, B = 256, P = 512, time = 3773
minimum start = 18762, maximum start = 18827
1D, Reduce pattern = 2, is allreduce = True, B = 256, P = 512, time = 3807
minimum start = 18756, maximum start = 18824
1D, Reduce pattern = 2, is allreduce = True, B = 512, P = 512, time = 6885
minimum start = 18740, maximum start = 18830
1D, Reduce pattern = 2, is allreduce = True, B = 512, P = 512, time = 6428
minimum start = 18756, maximum start = 18807
1D, Reduce pattern = 2, is allreduce = True, B = 1024, P = 512, time = 13035
minimum start = 18762, maximum start = 18840
1D, Reduce pattern = 2, is allreduce = True, B = 1024, P = 512, time = 12157
minimum start = 18729, maximum start = 18796
1D, Reduce pattern = 2, is allreduce = True, B = 2048, P = 512, time = 23596
minimum start = 18732, maximum start = 18822
1D, Reduce pattern = 2, is allreduce = True, B = 2048, P = 512, time = 25382
minimum start = 18736, maximum start = 18811
1D, Reduce pattern = 2, is allreduce = True, B = 4096, P = 512, time = 50085
minimum start = 18727, maximum start = 18808
1D, Reduce pattern = 2, is allreduce = True, B = 4096, P = 512, time = 50054
minimum start = 18750, maximum start = 18837
1D, Reduce pattern = 3, is allreduce = True, B = 1, P = 512, time = 2932
minimum start = 18691, maximum start = 18775
1D, Reduce pattern = 3, is allreduce = True, B = 1, P = 512, time = 2929
minimum start = 18717, maximum start = 18804
1D, Reduce pattern = 3, is allreduce = True, B = 2, P = 512, time = 8794
minimum start = 18662, maximum start = 18736
1D, Reduce pattern = 3, is allreduce = True, B = 2, P = 512, time = 8772
minimum start = 18704, maximum start = 18755
1D, Reduce pattern = 3, is allreduce = True, B = 4, P = 512, time = 9809
minimum start = 18698, maximum start = 18765
1D, Reduce pattern = 3, is allreduce = True, B = 4, P = 512, time = 9833
minimum start = 18695, maximum start = 18779
1D, Reduce pattern = 3, is allreduce = True, B = 8, P = 512, time = 11861
minimum start = 18715, maximum start = 18780
1D, Reduce pattern = 3, is allreduce = True, B = 8, P = 512, time = 11854
minimum start = 18699, maximum start = 18758
1D, Reduce pattern = 3, is allreduce = True, B = 16, P = 512, time = 16994
minimum start = 18672, maximum start = 18754
1D, Reduce pattern = 3, is allreduce = True, B = 16, P = 512, time = 16967
minimum start = 18691, maximum start = 18742
1D, Reduce pattern = 3, is allreduce = True, B = 32, P = 512, time = 26170
minimum start = 18702, maximum start = 18752
1D, Reduce pattern = 3, is allreduce = True, B = 32, P = 512, time = 26203
minimum start = 18672, maximum start = 18741
1D, Reduce pattern = 3, is allreduce = True, B = 64, P = 512, time = 43612
minimum start = 18684, maximum start = 18753
1D, Reduce pattern = 3, is allreduce = True, B = 64, P = 512, time = 43605
minimum start = 18702, maximum start = 18765
1D, Reduce pattern = 3, is allreduce = True, B = 128, P = 512, time = 80506
minimum start = 18683, maximum start = 18739
1D, Reduce pattern = 3, is allreduce = True, B = 128, P = 512, time = 80501
minimum start = 18692, maximum start = 18761
1D, Reduce pattern = 3, is allreduce = True, B = 256, P = 512, time = 153842
minimum start = 18694, maximum start = 18778
1D, Reduce pattern = 3, is allreduce = True, B = 256, P = 512, time = 153812
minimum start = 18676, maximum start = 18733
1D, Reduce pattern = 3, is allreduce = True, B = 512, P = 512, time = 330344
minimum start = 18709, maximum start = 18768
1D, Reduce pattern = 3, is allreduce = True, B = 512, P = 512, time = 331746
minimum start = 18694, maximum start = 18753
1D, Reduce pattern = 3, is allreduce = True, B = 1024, P = 512, time = 709632
minimum start = 18684, maximum start = 18737
1D, Reduce pattern = 3, is allreduce = True, B = 1024, P = 512, time = 708958
minimum start = 18710, maximum start = 18749
1D, Reduce pattern = 3, is allreduce = True, B = 2048, P = 512, time = 1419229
minimum start = 18689, maximum start = 18743
1D, Reduce pattern = 3, is allreduce = True, B = 2048, P = 512, time = 1419780
minimum start = 18737, maximum start = 18804
1D, Reduce pattern = 3, is allreduce = True, B = 4096, P = 512, time = 2706182
minimum start = 18687, maximum start = 18752
1D, Reduce pattern = 3, is allreduce = True, B = 4096, P = 512, time = 2705973
minimum start = 18699, maximum start = 18746
