Dim,Pattern,Allred,B,Pw,Ph,time,start_diff
2,1,False,1,512,512,2038,117
Dim,Pattern,Allred,B,Pw,Ph,time,start_diff
2,1,False,1,512,512,2026,122
Dim,Pattern,Allred,B,Pw,Ph,time,start_diff
2,1,False,1,512,512,2024,115
Dim,Pattern,Allred,B,Pw,Ph,time,start_diff
2,1,False,1,512,512,2023,119
Dim,Pattern,Allred,B,Pw,Ph,time,start_diff
2,1,False,1,512,512,2019,116
Dim,Pattern,Allred,B,Pw,Ph,time,start_diff
2,1,False,2,512,512,2019,115
Dim,Pattern,Allred,B,Pw,Ph,time,start_diff
2,1,False,2,512,512,2029,116
Dim,Pattern,Allred,B,Pw,Ph,time,start_diff
2,1,False,2,512,512,2024,120
Dim,Pattern,Allred,B,Pw,Ph,time,start_diff
2,1,False,2,512,512,2022,117
Dim,Pattern,Allred,B,Pw,Ph,time,start_diff
2,1,False,2,512,512,2036,118
Dim,Pattern,Allred,B,Pw,Ph,time,start_diff
2,1,False,4,512,512,2037,116
Dim,Pattern,Allred,B,Pw,Ph,time,start_diff
2,1,False,4,512,512,2033,123
Dim,Pattern,Allred,B,Pw,Ph,time,start_diff
2,1,False,4,512,512,2043,116
Dim,Pattern,Allred,B,Pw,Ph,time,start_diff
2,1,False,4,512,512,2036,116
Dim,Pattern,Allred,B,Pw,Ph,time,start_diff
2,1,False,4,512,512,2046,120
Dim,Pattern,Allred,B,Pw,Ph,time,start_diff
2,1,False,8,512,512,2063,117
Dim,Pattern,Allred,B,Pw,Ph,time,start_diff
2,1,False,8,512,512,2063,115
Dim,Pattern,Allred,B,Pw,Ph,time,start_diff
2,1,False,8,512,512,2056,122
Dim,Pattern,Allred,B,Pw,Ph,time,start_diff
2,1,False,8,512,512,2063,121
Dim,Pattern,Allred,B,Pw,Ph,time,start_diff
2,1,False,8,512,512,2060,113
Dim,Pattern,Allred,B,Pw,Ph,time,start_diff
2,1,False,16,512,512,2114,127
Dim,Pattern,Allred,B,Pw,Ph,time,start_diff
2,1,False,16,512,512,2097,114
Dim,Pattern,Allred,B,Pw,Ph,time,start_diff
2,1,False,16,512,512,2103,116
Dim,Pattern,Allred,B,Pw,Ph,time,start_diff
2,1,False,16,512,512,2105,119
Dim,Pattern,Allred,B,Pw,Ph,time,start_diff
2,1,False,16,512,512,2100,124
Dim,Pattern,Allred,B,Pw,Ph,time,start_diff
2,1,False,32,512,512,2208,119
Dim,Pattern,Allred,B,Pw,Ph,time,start_diff
2,1,False,32,512,512,2211,117
Dim,Pattern,Allred,B,Pw,Ph,time,start_diff
2,1,False,32,512,512,2215,122
Dim,Pattern,Allred,B,Pw,Ph,time,start_diff
2,1,False,32,512,512,2220,122
Dim,Pattern,Allred,B,Pw,Ph,time,start_diff
2,1,False,32,512,512,2220,115
Dim,Pattern,Allred,B,Pw,Ph,time,start_diff
2,1,False,64,512,512,2426,115
Dim,Pattern,Allred,B,Pw,Ph,time,start_diff
2,1,False,64,512,512,2431,116
Dim,Pattern,Allred,B,Pw,Ph,time,start_diff
2,1,False,64,512,512,2431,115
Dim,Pattern,Allred,B,Pw,Ph,time,start_diff
2,1,False,64,512,512,2418,117
Dim,Pattern,Allred,B,Pw,Ph,time,start_diff
2,1,False,64,512,512,2429,114
Dim,Pattern,Allred,B,Pw,Ph,time,start_diff
2,1,False,128,512,512,2842,123
Dim,Pattern,Allred,B,Pw,Ph,time,start_diff
2,1,False,128,512,512,2833,124
Dim,Pattern,Allred,B,Pw,Ph,time,start_diff
2,1,False,128,512,512,2849,119
Dim,Pattern,Allred,B,Pw,Ph,time,start_diff
2,1,False,128,512,512,2853,117
Dim,Pattern,Allred,B,Pw,Ph,time,start_diff
2,1,False,128,512,512,2845,117
Dim,Pattern,Allred,B,Pw,Ph,time,start_diff
2,1,False,256,512,512,3731,115
Dim,Pattern,Allred,B,Pw,Ph,time,start_diff
2,1,False,256,512,512,3706,120
Dim,Pattern,Allred,B,Pw,Ph,time,start_diff
2,1,False,256,512,512,3732,120
Dim,Pattern,Allred,B,Pw,Ph,time,start_diff
2,1,False,256,512,512,3730,113
Dim,Pattern,Allred,B,Pw,Ph,time,start_diff
2,1,False,256,512,512,3734,117
Dim,Pattern,Allred,B,Pw,Ph,time,start_diff
2,1,False,512,512,512,5418,114
Dim,Pattern,Allred,B,Pw,Ph,time,start_diff
2,1,False,512,512,512,5434,119
Dim,Pattern,Allred,B,Pw,Ph,time,start_diff
2,1,False,512,512,512,5458,118
Dim,Pattern,Allred,B,Pw,Ph,time,start_diff
2,1,False,512,512,512,5440,123
Dim,Pattern,Allred,B,Pw,Ph,time,start_diff
2,1,False,512,512,512,5422,118
Dim,Pattern,Allred,B,Pw,Ph,time,start_diff
2,1,False,1024,512,512,8384,122
Dim,Pattern,Allred,B,Pw,Ph,time,start_diff
2,1,False,1024,512,512,8369,117
Dim,Pattern,Allred,B,Pw,Ph,time,start_diff
2,1,False,1024,512,512,8380,114
Dim,Pattern,Allred,B,Pw,Ph,time,start_diff
2,1,False,1024,512,512,8375,117
Dim,Pattern,Allred,B,Pw,Ph,time,start_diff
2,1,False,1024,512,512,8396,120
Dim,Pattern,Allred,B,Pw,Ph,time,start_diff
2,1,False,2048,512,512,13798,125
Dim,Pattern,Allred,B,Pw,Ph,time,start_diff
2,1,False,2048,512,512,13806,119
Dim,Pattern,Allred,B,Pw,Ph,time,start_diff
2,1,False,2048,512,512,13833,118
Dim,Pattern,Allred,B,Pw,Ph,time,start_diff
2,1,False,2048,512,512,13832,121
Dim,Pattern,Allred,B,Pw,Ph,time,start_diff
2,1,False,2048,512,512,13785,116
Dim,Pattern,Allred,B,Pw,Ph,time,start_diff
2,1,False,4096,512,512,23692,121
Dim,Pattern,Allred,B,Pw,Ph,time,start_diff
2,1,False,4096,512,512,23596,121
Dim,Pattern,Allred,B,Pw,Ph,time,start_diff
2,1,False,4096,512,512,23505,116
Dim,Pattern,Allred,B,Pw,Ph,time,start_diff
2,1,False,4096,512,512,23657,115
Dim,Pattern,Allred,B,Pw,Ph,time,start_diff
2,1,False,4096,512,512,23584,119
Dim,Pattern,Allred,B,Pw,Ph,time,start_diff
2,1,True,1,512,512,3029,117
Dim,Pattern,Allred,B,Pw,Ph,time,start_diff
2,1,True,1,512,512,3027,121
Dim,Pattern,Allred,B,Pw,Ph,time,start_diff
2,1,True,1,512,512,3026,118
Dim,Pattern,Allred,B,Pw,Ph,time,start_diff
2,1,True,1,512,512,3030,120
Dim,Pattern,Allred,B,Pw,Ph,time,start_diff
2,1,True,1,512,512,3029,122
Dim,Pattern,Allred,B,Pw,Ph,time,start_diff
2,1,True,2,512,512,3036,120
Dim,Pattern,Allred,B,Pw,Ph,time,start_diff
2,1,True,2,512,512,3031,117
Dim,Pattern,Allred,B,Pw,Ph,time,start_diff
2,1,True,2,512,512,3030,116
Dim,Pattern,Allred,B,Pw,Ph,time,start_diff
2,1,True,2,512,512,3030,115
Dim,Pattern,Allred,B,Pw,Ph,time,start_diff
2,1,True,2,512,512,3032,120
Dim,Pattern,Allred,B,Pw,Ph,time,start_diff
2,1,True,4,512,512,3049,120
Dim,Pattern,Allred,B,Pw,Ph,time,start_diff
2,1,True,4,512,512,3044,119
Dim,Pattern,Allred,B,Pw,Ph,time,start_diff
2,1,True,4,512,512,3044,118
Dim,Pattern,Allred,B,Pw,Ph,time,start_diff
2,1,True,4,512,512,3052,129
Dim,Pattern,Allred,B,Pw,Ph,time,start_diff
2,1,True,4,512,512,3044,115
Dim,Pattern,Allred,B,Pw,Ph,time,start_diff
2,1,True,8,512,512,3080,118
Dim,Pattern,Allred,B,Pw,Ph,time,start_diff
2,1,True,8,512,512,3084,126
Dim,Pattern,Allred,B,Pw,Ph,time,start_diff
2,1,True,8,512,512,3082,124
Dim,Pattern,Allred,B,Pw,Ph,time,start_diff
2,1,True,8,512,512,3080,114
Dim,Pattern,Allred,B,Pw,Ph,time,start_diff
2,1,True,8,512,512,3075,118
Dim,Pattern,Allred,B,Pw,Ph,time,start_diff
2,1,True,16,512,512,3143,127
Dim,Pattern,Allred,B,Pw,Ph,time,start_diff
2,1,True,16,512,512,3126,114
Dim,Pattern,Allred,B,Pw,Ph,time,start_diff
2,1,True,16,512,512,3136,118
Dim,Pattern,Allred,B,Pw,Ph,time,start_diff
2,1,True,16,512,512,3131,120
Dim,Pattern,Allred,B,Pw,Ph,time,start_diff
2,1,True,16,512,512,3128,115
Dim,Pattern,Allred,B,Pw,Ph,time,start_diff
2,1,True,32,512,512,3268,123
Dim,Pattern,Allred,B,Pw,Ph,time,start_diff
2,1,True,32,512,512,3261,117
Dim,Pattern,Allred,B,Pw,Ph,time,start_diff
2,1,True,32,512,512,3258,116
Dim,Pattern,Allred,B,Pw,Ph,time,start_diff
2,1,True,32,512,512,3270,123
Dim,Pattern,Allred,B,Pw,Ph,time,start_diff
2,1,True,32,512,512,3260,117
Dim,Pattern,Allred,B,Pw,Ph,time,start_diff
2,1,True,64,512,512,3521,113
Dim,Pattern,Allred,B,Pw,Ph,time,start_diff
2,1,True,64,512,512,3517,116
Dim,Pattern,Allred,B,Pw,Ph,time,start_diff
2,1,True,64,512,512,3523,117
Dim,Pattern,Allred,B,Pw,Ph,time,start_diff
2,1,True,64,512,512,3527,117
Dim,Pattern,Allred,B,Pw,Ph,time,start_diff
2,1,True,64,512,512,3538,119
Dim,Pattern,Allred,B,Pw,Ph,time,start_diff
2,1,True,128,512,512,4036,118
Dim,Pattern,Allred,B,Pw,Ph,time,start_diff
2,1,True,128,512,512,4030,116
Dim,Pattern,Allred,B,Pw,Ph,time,start_diff
2,1,True,128,512,512,4034,122
Dim,Pattern,Allred,B,Pw,Ph,time,start_diff
2,1,True,128,512,512,4039,122
Dim,Pattern,Allred,B,Pw,Ph,time,start_diff
2,1,True,128,512,512,4038,118
Dim,Pattern,Allred,B,Pw,Ph,time,start_diff
2,1,True,256,512,512,5126,116
Dim,Pattern,Allred,B,Pw,Ph,time,start_diff
2,1,True,256,512,512,5108,120
Dim,Pattern,Allred,B,Pw,Ph,time,start_diff
2,1,True,256,512,512,5118,124
Dim,Pattern,Allred,B,Pw,Ph,time,start_diff
2,1,True,256,512,512,5132,119
Dim,Pattern,Allred,B,Pw,Ph,time,start_diff
2,1,True,256,512,512,5127,121
Dim,Pattern,Allred,B,Pw,Ph,time,start_diff
2,1,True,512,512,512,7202,117
Dim,Pattern,Allred,B,Pw,Ph,time,start_diff
2,1,True,512,512,512,7176,113
Dim,Pattern,Allred,B,Pw,Ph,time,start_diff
2,1,True,512,512,512,7202,117
Dim,Pattern,Allred,B,Pw,Ph,time,start_diff
2,1,True,512,512,512,7181,117
Dim,Pattern,Allred,B,Pw,Ph,time,start_diff
2,1,True,512,512,512,7191,119
Dim,Pattern,Allred,B,Pw,Ph,time,start_diff
2,1,True,1024,512,512,10893,119
Dim,Pattern,Allred,B,Pw,Ph,time,start_diff
2,1,True,1024,512,512,10869,115
Dim,Pattern,Allred,B,Pw,Ph,time,start_diff
2,1,True,1024,512,512,10856,116
Dim,Pattern,Allred,B,Pw,Ph,time,start_diff
2,1,True,1024,512,512,10853,118
Dim,Pattern,Allred,B,Pw,Ph,time,start_diff
2,1,True,1024,512,512,10846,117
Dim,Pattern,Allred,B,Pw,Ph,time,start_diff
2,1,True,2048,512,512,17637,117
Dim,Pattern,Allred,B,Pw,Ph,time,start_diff
2,1,True,2048,512,512,17683,116
Dim,Pattern,Allred,B,Pw,Ph,time,start_diff
2,1,True,2048,512,512,17677,121
Dim,Pattern,Allred,B,Pw,Ph,time,start_diff
2,1,True,2048,512,512,17686,119
Dim,Pattern,Allred,B,Pw,Ph,time,start_diff
2,1,True,2048,512,512,17667,116
Dim,Pattern,Allred,B,Pw,Ph,time,start_diff
2,1,True,4096,512,512,29903,113
Dim,Pattern,Allred,B,Pw,Ph,time,start_diff
2,1,True,4096,512,512,29830,115
Dim,Pattern,Allred,B,Pw,Ph,time,start_diff
2,1,True,4096,512,512,29895,112
Dim,Pattern,Allred,B,Pw,Ph,time,start_diff
2,1,True,4096,512,512,29881,120
Dim,Pattern,Allred,B,Pw,Ph,time,start_diff
2,1,True,4096,512,512,29904,121
