2D, Reduce pattern = 0, is allreduce = 0, B = 1, Pw = 512, Ph = 512, time = 2044
minimum start = 1046, maximum start = 1138, diff = 92
2D, Reduce pattern = 0, is allreduce = 0, B = 1, Pw = 512, Ph = 512, time = 2057
minimum start = 1042, maximum start = 1137, diff = 95
2D, Reduce pattern = 0, is allreduce = 0, B = 1, Pw = 512, Ph = 512, time = 2062
minimum start = 1042, maximum start = 1138, diff = 96
2D, Reduce pattern = 0, is allreduce = 0, B = 1, Pw = 512, Ph = 512, time = 2050
minimum start = 1046, maximum start = 1136, diff = 90
2D, Reduce pattern = 0, is allreduce = 0, B = 1, Pw = 512, Ph = 512, time = 2037
minimum start = 1054, maximum start = 1138, diff = 84
2D, Reduce pattern = 0, is allreduce = 1, B = 1, Pw = 512, Ph = 512, time = 3005
minimum start = 1044, maximum start = 1139, diff = 95
2D, Reduce pattern = 0, is allreduce = 1, B = 1, Pw = 512, Ph = 512, time = 3000
minimum start = 1050, maximum start = 1137, diff = 87
2D, Reduce pattern = 0, is allreduce = 1, B = 1, Pw = 512, Ph = 512, time = 2993
minimum start = 1054, maximum start = 1136, diff = 82
2D, Reduce pattern = 0, is allreduce = 1, B = 1, Pw = 512, Ph = 512, time = 3006
minimum start = 1046, maximum start = 1138, diff = 92
2D, Reduce pattern = 0, is allreduce = 1, B = 1, Pw = 512, Ph = 512, time = 3006
minimum start = 1040, maximum start = 1136, diff = 96
2D, Reduce pattern = 0, is allreduce = 0, B = 2, Pw = 512, Ph = 512, time = 1934
minimum start = 1053, maximum start = 1138, diff = 85
2D, Reduce pattern = 0, is allreduce = 0, B = 2, Pw = 512, Ph = 512, time = 1929
minimum start = 1047, maximum start = 1139, diff = 92
2D, Reduce pattern = 0, is allreduce = 0, B = 2, Pw = 512, Ph = 512, time = 1942
minimum start = 1045, maximum start = 1137, diff = 92
2D, Reduce pattern = 0, is allreduce = 0, B = 2, Pw = 512, Ph = 512, time = 1949
minimum start = 1043, maximum start = 1138, diff = 95
2D, Reduce pattern = 0, is allreduce = 0, B = 2, Pw = 512, Ph = 512, time = 1944
minimum start = 1049, maximum start = 1137, diff = 88
2D, Reduce pattern = 0, is allreduce = 1, B = 2, Pw = 512, Ph = 512, time = 2906
minimum start = 1039, maximum start = 1137, diff = 98
2D, Reduce pattern = 0, is allreduce = 1, B = 2, Pw = 512, Ph = 512, time = 2908
minimum start = 1039, maximum start = 1139, diff = 100
2D, Reduce pattern = 0, is allreduce = 1, B = 2, Pw = 512, Ph = 512, time = 2905
minimum start = 1043, maximum start = 1138, diff = 95
2D, Reduce pattern = 0, is allreduce = 1, B = 2, Pw = 512, Ph = 512, time = 2900
minimum start = 1047, maximum start = 1140, diff = 93
2D, Reduce pattern = 0, is allreduce = 1, B = 2, Pw = 512, Ph = 512, time = 2917
minimum start = 1039, maximum start = 1137, diff = 98
2D, Reduce pattern = 0, is allreduce = 0, B = 4, Pw = 512, Ph = 512, time = 1908
minimum start = 1050, maximum start = 1138, diff = 88
2D, Reduce pattern = 0, is allreduce = 0, B = 4, Pw = 512, Ph = 512, time = 1906
minimum start = 1047, maximum start = 1136, diff = 89
2D, Reduce pattern = 0, is allreduce = 0, B = 4, Pw = 512, Ph = 512, time = 1925
minimum start = 1039, maximum start = 1139, diff = 100
2D, Reduce pattern = 0, is allreduce = 0, B = 4, Pw = 512, Ph = 512, time = 1924
minimum start = 1045, maximum start = 1138, diff = 93
2D, Reduce pattern = 0, is allreduce = 0, B = 4, Pw = 512, Ph = 512, time = 1920
minimum start = 1043, maximum start = 1138, diff = 95
2D, Reduce pattern = 0, is allreduce = 1, B = 4, Pw = 512, Ph = 512, time = 2886
minimum start = 1043, maximum start = 1137, diff = 94
2D, Reduce pattern = 0, is allreduce = 1, B = 4, Pw = 512, Ph = 512, time = 2887
minimum start = 1041, maximum start = 1137, diff = 96
2D, Reduce pattern = 0, is allreduce = 1, B = 4, Pw = 512, Ph = 512, time = 2881
minimum start = 1045, maximum start = 1139, diff = 94
2D, Reduce pattern = 0, is allreduce = 1, B = 4, Pw = 512, Ph = 512, time = 2886
minimum start = 1045, maximum start = 1138, diff = 93
2D, Reduce pattern = 0, is allreduce = 1, B = 4, Pw = 512, Ph = 512, time = 2887
minimum start = 1042, maximum start = 1138, diff = 96
2D, Reduce pattern = 0, is allreduce = 0, B = 8, Pw = 512, Ph = 512, time = 1967
minimum start = 1059, maximum start = 1139, diff = 80
2D, Reduce pattern = 0, is allreduce = 0, B = 8, Pw = 512, Ph = 512, time = 1960
minimum start = 1049, maximum start = 1139, diff = 90
2D, Reduce pattern = 0, is allreduce = 0, B = 8, Pw = 512, Ph = 512, time = 1990
minimum start = 1037, maximum start = 1139, diff = 102
2D, Reduce pattern = 0, is allreduce = 0, B = 8, Pw = 512, Ph = 512, time = 1974
minimum start = 1045, maximum start = 1139, diff = 94
2D, Reduce pattern = 0, is allreduce = 0, B = 8, Pw = 512, Ph = 512, time = 1959
minimum start = 1041, maximum start = 1138, diff = 97
2D, Reduce pattern = 0, is allreduce = 1, B = 8, Pw = 512, Ph = 512, time = 2939
minimum start = 1053, maximum start = 1137, diff = 84
2D, Reduce pattern = 0, is allreduce = 1, B = 8, Pw = 512, Ph = 512, time = 2945
minimum start = 1045, maximum start = 1139, diff = 94
2D, Reduce pattern = 0, is allreduce = 1, B = 8, Pw = 512, Ph = 512, time = 2933
minimum start = 1055, maximum start = 1137, diff = 82
2D, Reduce pattern = 0, is allreduce = 1, B = 8, Pw = 512, Ph = 512, time = 2934
minimum start = 1053, maximum start = 1138, diff = 85
2D, Reduce pattern = 0, is allreduce = 1, B = 8, Pw = 512, Ph = 512, time = 2956
minimum start = 1039, maximum start = 1137, diff = 98
2D, Reduce pattern = 0, is allreduce = 0, B = 16, Pw = 512, Ph = 512, time = 2053
minimum start = 1039, maximum start = 1138, diff = 99
2D, Reduce pattern = 0, is allreduce = 0, B = 16, Pw = 512, Ph = 512, time = 2055
minimum start = 1053, maximum start = 1137, diff = 84
2D, Reduce pattern = 0, is allreduce = 0, B = 16, Pw = 512, Ph = 512, time = 2045
minimum start = 1045, maximum start = 1138, diff = 93
2D, Reduce pattern = 0, is allreduce = 0, B = 16, Pw = 512, Ph = 512, time = 2046
minimum start = 1055, maximum start = 1139, diff = 84
2D, Reduce pattern = 0, is allreduce = 0, B = 16, Pw = 512, Ph = 512, time = 2035
minimum start = 1049, maximum start = 1137, diff = 88
2D, Reduce pattern = 0, is allreduce = 1, B = 16, Pw = 512, Ph = 512, time = 3035
minimum start = 1047, maximum start = 1138, diff = 91
2D, Reduce pattern = 0, is allreduce = 1, B = 16, Pw = 512, Ph = 512, time = 3032
minimum start = 1047, maximum start = 1136, diff = 89
2D, Reduce pattern = 0, is allreduce = 1, B = 16, Pw = 512, Ph = 512, time = 3025
minimum start = 1047, maximum start = 1139, diff = 92
2D, Reduce pattern = 0, is allreduce = 1, B = 16, Pw = 512, Ph = 512, time = 3031
minimum start = 1049, maximum start = 1139, diff = 90
2D, Reduce pattern = 0, is allreduce = 1, B = 16, Pw = 512, Ph = 512, time = 3034
minimum start = 1051, maximum start = 1138, diff = 87
2D, Reduce pattern = 0, is allreduce = 0, B = 32, Pw = 512, Ph = 512, time = 2162
minimum start = 1055, maximum start = 1139, diff = 84
2D, Reduce pattern = 0, is allreduce = 0, B = 32, Pw = 512, Ph = 512, time = 2178
minimum start = 1049, maximum start = 1140, diff = 91
2D, Reduce pattern = 0, is allreduce = 0, B = 32, Pw = 512, Ph = 512, time = 2175
minimum start = 1051, maximum start = 1139, diff = 88
2D, Reduce pattern = 0, is allreduce = 0, B = 32, Pw = 512, Ph = 512, time = 2173
minimum start = 1045, maximum start = 1139, diff = 94
2D, Reduce pattern = 0, is allreduce = 0, B = 32, Pw = 512, Ph = 512, time = 2169
minimum start = 1047, maximum start = 1139, diff = 92
2D, Reduce pattern = 0, is allreduce = 1, B = 32, Pw = 512, Ph = 512, time = 3183
minimum start = 1039, maximum start = 1139, diff = 100
2D, Reduce pattern = 0, is allreduce = 1, B = 32, Pw = 512, Ph = 512, time = 3180
minimum start = 1053, maximum start = 1138, diff = 85
2D, Reduce pattern = 0, is allreduce = 1, B = 32, Pw = 512, Ph = 512, time = 3183
minimum start = 1047, maximum start = 1138, diff = 91
2D, Reduce pattern = 0, is allreduce = 1, B = 32, Pw = 512, Ph = 512, time = 3174
minimum start = 1049, maximum start = 1139, diff = 90
2D, Reduce pattern = 0, is allreduce = 1, B = 32, Pw = 512, Ph = 512, time = 3176
minimum start = 1053, maximum start = 1137, diff = 84
2D, Reduce pattern = 0, is allreduce = 0, B = 64, Pw = 512, Ph = 512, time = 2395
minimum start = 1049, maximum start = 1138, diff = 89
2D, Reduce pattern = 0, is allreduce = 0, B = 64, Pw = 512, Ph = 512, time = 2397
minimum start = 1051, maximum start = 1139, diff = 88
2D, Reduce pattern = 0, is allreduce = 0, B = 64, Pw = 512, Ph = 512, time = 2376
minimum start = 1049, maximum start = 1137, diff = 88
2D, Reduce pattern = 0, is allreduce = 0, B = 64, Pw = 512, Ph = 512, time = 2400
minimum start = 1050, maximum start = 1139, diff = 89
2D, Reduce pattern = 0, is allreduce = 0, B = 64, Pw = 512, Ph = 512, time = 2396
minimum start = 1047, maximum start = 1138, diff = 91
2D, Reduce pattern = 0, is allreduce = 1, B = 64, Pw = 512, Ph = 512, time = 3449
minimum start = 1049, maximum start = 1139, diff = 90
2D, Reduce pattern = 0, is allreduce = 1, B = 64, Pw = 512, Ph = 512, time = 3443
minimum start = 1045, maximum start = 1138, diff = 93
2D, Reduce pattern = 0, is allreduce = 1, B = 64, Pw = 512, Ph = 512, time = 3434
minimum start = 1057, maximum start = 1138, diff = 81
2D, Reduce pattern = 0, is allreduce = 1, B = 64, Pw = 512, Ph = 512, time = 3460
minimum start = 1047, maximum start = 1137, diff = 90
2D, Reduce pattern = 0, is allreduce = 1, B = 64, Pw = 512, Ph = 512, time = 3461
minimum start = 1041, maximum start = 1141, diff = 100
2D, Reduce pattern = 0, is allreduce = 0, B = 128, Pw = 512, Ph = 512, time = 2856
minimum start = 1055, maximum start = 1138, diff = 83
2D, Reduce pattern = 0, is allreduce = 0, B = 128, Pw = 512, Ph = 512, time = 2875
minimum start = 1049, maximum start = 1139, diff = 90
2D, Reduce pattern = 0, is allreduce = 0, B = 128, Pw = 512, Ph = 512, time = 2865
minimum start = 1045, maximum start = 1138, diff = 93
2D, Reduce pattern = 0, is allreduce = 0, B = 128, Pw = 512, Ph = 512, time = 2864
minimum start = 1043, maximum start = 1139, diff = 96
2D, Reduce pattern = 0, is allreduce = 0, B = 128, Pw = 512, Ph = 512, time = 2864
minimum start = 1043, maximum start = 1137, diff = 94
2D, Reduce pattern = 0, is allreduce = 1, B = 128, Pw = 512, Ph = 512, time = 4004
minimum start = 1047, maximum start = 1137, diff = 90
2D, Reduce pattern = 0, is allreduce = 1, B = 128, Pw = 512, Ph = 512, time = 4007
minimum start = 1045, maximum start = 1138, diff = 93
2D, Reduce pattern = 0, is allreduce = 1, B = 128, Pw = 512, Ph = 512, time = 3998
minimum start = 1051, maximum start = 1137, diff = 86
2D, Reduce pattern = 0, is allreduce = 1, B = 128, Pw = 512, Ph = 512, time = 4019
minimum start = 1037, maximum start = 1137, diff = 100
2D, Reduce pattern = 0, is allreduce = 1, B = 128, Pw = 512, Ph = 512, time = 4000
minimum start = 1047, maximum start = 1139, diff = 92
2D, Reduce pattern = 0, is allreduce = 0, B = 256, Pw = 512, Ph = 512, time = 3649
minimum start = 1049, maximum start = 1138, diff = 89
2D, Reduce pattern = 0, is allreduce = 0, B = 256, Pw = 512, Ph = 512, time = 3654
minimum start = 1043, maximum start = 1138, diff = 95
2D, Reduce pattern = 0, is allreduce = 0, B = 256, Pw = 512, Ph = 512, time = 3622
minimum start = 1051, maximum start = 1137, diff = 86
2D, Reduce pattern = 0, is allreduce = 0, B = 256, Pw = 512, Ph = 512, time = 3643
minimum start = 1049, maximum start = 1137, diff = 88
2D, Reduce pattern = 0, is allreduce = 0, B = 256, Pw = 512, Ph = 512, time = 3642
minimum start = 1047, maximum start = 1136, diff = 89
2D, Reduce pattern = 0, is allreduce = 1, B = 256, Pw = 512, Ph = 512, time = 4954
minimum start = 1045, maximum start = 1139, diff = 94
2D, Reduce pattern = 0, is allreduce = 1, B = 256, Pw = 512, Ph = 512, time = 4968
minimum start = 1045, maximum start = 1137, diff = 92
2D, Reduce pattern = 0, is allreduce = 1, B = 256, Pw = 512, Ph = 512, time = 4967
minimum start = 1051, maximum start = 1137, diff = 86
2D, Reduce pattern = 0, is allreduce = 1, B = 256, Pw = 512, Ph = 512, time = 4969
minimum start = 1047, maximum start = 1138, diff = 91
2D, Reduce pattern = 0, is allreduce = 1, B = 256, Pw = 512, Ph = 512, time = 4976
minimum start = 1045, maximum start = 1138, diff = 93
2D, Reduce pattern = 0, is allreduce = 0, B = 512, Pw = 512, Ph = 512, time = 5190
minimum start = 1051, maximum start = 1140, diff = 89
2D, Reduce pattern = 0, is allreduce = 0, B = 512, Pw = 512, Ph = 512, time = 5211
minimum start = 1055, maximum start = 1138, diff = 83
2D, Reduce pattern = 0, is allreduce = 0, B = 512, Pw = 512, Ph = 512, time = 5188
minimum start = 1043, maximum start = 1138, diff = 95
2D, Reduce pattern = 0, is allreduce = 0, B = 512, Pw = 512, Ph = 512, time = 5212
minimum start = 1043, maximum start = 1137, diff = 94
2D, Reduce pattern = 0, is allreduce = 0, B = 512, Pw = 512, Ph = 512, time = 5195
minimum start = 1045, maximum start = 1139, diff = 94
2D, Reduce pattern = 0, is allreduce = 1, B = 512, Pw = 512, Ph = 512, time = 6868
minimum start = 1049, maximum start = 1138, diff = 89
2D, Reduce pattern = 0, is allreduce = 1, B = 512, Pw = 512, Ph = 512, time = 6902
minimum start = 1035, maximum start = 1139, diff = 104
2D, Reduce pattern = 0, is allreduce = 1, B = 512, Pw = 512, Ph = 512, time = 6886
minimum start = 1047, maximum start = 1139, diff = 92
2D, Reduce pattern = 0, is allreduce = 1, B = 512, Pw = 512, Ph = 512, time = 6870
minimum start = 1051, maximum start = 1139, diff = 88
2D, Reduce pattern = 0, is allreduce = 1, B = 512, Pw = 512, Ph = 512, time = 6900
minimum start = 1039, maximum start = 1137, diff = 98
2D, Reduce pattern = 0, is allreduce = 0, B = 1024, Pw = 512, Ph = 512, time = 7968
minimum start = 1051, maximum start = 1137, diff = 86
2D, Reduce pattern = 0, is allreduce = 0, B = 1024, Pw = 512, Ph = 512, time = 7959
minimum start = 1045, maximum start = 1137, diff = 92
2D, Reduce pattern = 0, is allreduce = 0, B = 1024, Pw = 512, Ph = 512, time = 7975
minimum start = 1049, maximum start = 1138, diff = 89
2D, Reduce pattern = 0, is allreduce = 0, B = 1024, Pw = 512, Ph = 512, time = 7991
minimum start = 1045, maximum start = 1139, diff = 94
2D, Reduce pattern = 0, is allreduce = 0, B = 1024, Pw = 512, Ph = 512, time = 7997
minimum start = 1045, maximum start = 1137, diff = 92
2D, Reduce pattern = 0, is allreduce = 1, B = 1024, Pw = 512, Ph = 512, time = 10428
minimum start = 1049, maximum start = 1138, diff = 89
2D, Reduce pattern = 0, is allreduce = 1, B = 1024, Pw = 512, Ph = 512, time = 10426
minimum start = 1043, maximum start = 1138, diff = 95
2D, Reduce pattern = 0, is allreduce = 1, B = 1024, Pw = 512, Ph = 512, time = 10371
minimum start = 1055, maximum start = 1138, diff = 83
2D, Reduce pattern = 0, is allreduce = 1, B = 1024, Pw = 512, Ph = 512, time = 10393
minimum start = 1043, maximum start = 1137, diff = 94
2D, Reduce pattern = 0, is allreduce = 1, B = 1024, Pw = 512, Ph = 512, time = 10405
minimum start = 1043, maximum start = 1140, diff = 97
2D, Reduce pattern = 0, is allreduce = 0, B = 2048, Pw = 512, Ph = 512, time = 13074
minimum start = 1039, maximum start = 1137, diff = 98
2D, Reduce pattern = 0, is allreduce = 0, B = 2048, Pw = 512, Ph = 512, time = 13109
minimum start = 1045, maximum start = 1138, diff = 93
2D, Reduce pattern = 0, is allreduce = 0, B = 2048, Pw = 512, Ph = 512, time = 13087
minimum start = 1039, maximum start = 1137, diff = 98
2D, Reduce pattern = 0, is allreduce = 0, B = 2048, Pw = 512, Ph = 512, time = 13048
minimum start = 1053, maximum start = 1137, diff = 84
2D, Reduce pattern = 0, is allreduce = 0, B = 2048, Pw = 512, Ph = 512, time = 13097
minimum start = 1045, maximum start = 1137, diff = 92
2D, Reduce pattern = 0, is allreduce = 1, B = 2048, Pw = 512, Ph = 512, time = 16874
minimum start = 1047, maximum start = 1139, diff = 92
2D, Reduce pattern = 0, is allreduce = 1, B = 2048, Pw = 512, Ph = 512, time = 16840
minimum start = 1051, maximum start = 1138, diff = 87
2D, Reduce pattern = 0, is allreduce = 1, B = 2048, Pw = 512, Ph = 512, time = 16833
minimum start = 1055, maximum start = 1137, diff = 82
2D, Reduce pattern = 0, is allreduce = 1, B = 2048, Pw = 512, Ph = 512, time = 16810
minimum start = 1055, maximum start = 1137, diff = 82
2D, Reduce pattern = 0, is allreduce = 1, B = 2048, Pw = 512, Ph = 512, time = 16884
minimum start = 1049, maximum start = 1140, diff = 91
2D, Reduce pattern = 0, is allreduce = 0, B = 4096, Pw = 512, Ph = 512, time = 17415
minimum start = 1061, maximum start = 1139, diff = 78
2D, Reduce pattern = 0, is allreduce = 0, B = 4096, Pw = 512, Ph = 512, time = 17391
minimum start = 1043, maximum start = 1138, diff = 95
2D, Reduce pattern = 0, is allreduce = 0, B = 4096, Pw = 512, Ph = 512, time = 17416
minimum start = 1045, maximum start = 1138, diff = 93
2D, Reduce pattern = 0, is allreduce = 0, B = 4096, Pw = 512, Ph = 512, time = 17413
minimum start = 1043, maximum start = 1137, diff = 94
2D, Reduce pattern = 0, is allreduce = 0, B = 4096, Pw = 512, Ph = 512, time = 17408
minimum start = 1051, maximum start = 1138, diff = 87
2D, Reduce pattern = 0, is allreduce = 1, B = 4096, Pw = 512, Ph = 512, time = 23699
minimum start = 1051, maximum start = 1136, diff = 85
2D, Reduce pattern = 0, is allreduce = 1, B = 4096, Pw = 512, Ph = 512, time = 23670
minimum start = 1057, maximum start = 1138, diff = 81
2D, Reduce pattern = 0, is allreduce = 1, B = 4096, Pw = 512, Ph = 512, time = 23784
minimum start = 1043, maximum start = 1138, diff = 95
2D, Reduce pattern = 0, is allreduce = 1, B = 4096, Pw = 512, Ph = 512, time = 23712
minimum start = 1043, maximum start = 1139, diff = 96
2D, Reduce pattern = 0, is allreduce = 1, B = 4096, Pw = 512, Ph = 512, time = 23717
minimum start = 1049, maximum start = 1137, diff = 88
2D, Reduce pattern = 0, is allreduce = 0, B = 256, Pw = 4, Ph = 4, time = 766
minimum start = 79, maximum start = 81, diff = 2
2D, Reduce pattern = 0, is allreduce = 0, B = 256, Pw = 4, Ph = 4, time = 767
minimum start = 79, maximum start = 81, diff = 2
2D, Reduce pattern = 0, is allreduce = 0, B = 256, Pw = 4, Ph = 4, time = 763
minimum start = 79, maximum start = 81, diff = 2
2D, Reduce pattern = 0, is allreduce = 0, B = 256, Pw = 4, Ph = 4, time = 765
minimum start = 79, maximum start = 81, diff = 2
2D, Reduce pattern = 0, is allreduce = 0, B = 256, Pw = 4, Ph = 4, time = 765
minimum start = 79, maximum start = 81, diff = 2
2D, Reduce pattern = 0, is allreduce = 1, B = 256, Pw = 4, Ph = 4, time = 1110
minimum start = 79, maximum start = 81, diff = 2
2D, Reduce pattern = 0, is allreduce = 1, B = 256, Pw = 4, Ph = 4, time = 1109
minimum start = 79, maximum start = 81, diff = 2
2D, Reduce pattern = 0, is allreduce = 1, B = 256, Pw = 4, Ph = 4, time = 1108
minimum start = 79, maximum start = 81, diff = 2
2D, Reduce pattern = 0, is allreduce = 1, B = 256, Pw = 4, Ph = 4, time = 1106
minimum start = 79, maximum start = 81, diff = 2
2D, Reduce pattern = 0, is allreduce = 1, B = 256, Pw = 4, Ph = 4, time = 1107
minimum start = 79, maximum start = 81, diff = 2
2D, Reduce pattern = 0, is allreduce = 0, B = 256, Pw = 8, Ph = 8, time = 807
minimum start = 87, maximum start = 89, diff = 2
2D, Reduce pattern = 0, is allreduce = 0, B = 256, Pw = 8, Ph = 8, time = 809
minimum start = 87, maximum start = 89, diff = 2
2D, Reduce pattern = 0, is allreduce = 0, B = 256, Pw = 8, Ph = 8, time = 807
minimum start = 87, maximum start = 89, diff = 2
2D, Reduce pattern = 0, is allreduce = 0, B = 256, Pw = 8, Ph = 8, time = 809
minimum start = 87, maximum start = 89, diff = 2
2D, Reduce pattern = 0, is allreduce = 0, B = 256, Pw = 8, Ph = 8, time = 806
minimum start = 87, maximum start = 89, diff = 2
2D, Reduce pattern = 0, is allreduce = 1, B = 256, Pw = 8, Ph = 8, time = 1173
minimum start = 87, maximum start = 89, diff = 2
2D, Reduce pattern = 0, is allreduce = 1, B = 256, Pw = 8, Ph = 8, time = 1155
minimum start = 87, maximum start = 89, diff = 2
2D, Reduce pattern = 0, is allreduce = 1, B = 256, Pw = 8, Ph = 8, time = 1176
minimum start = 87, maximum start = 89, diff = 2
2D, Reduce pattern = 0, is allreduce = 1, B = 256, Pw = 8, Ph = 8, time = 1168
minimum start = 87, maximum start = 89, diff = 2
2D, Reduce pattern = 0, is allreduce = 1, B = 256, Pw = 8, Ph = 8, time = 1163
minimum start = 87, maximum start = 90, diff = 3
2D, Reduce pattern = 0, is allreduce = 0, B = 256, Pw = 16, Ph = 16, time = 908
minimum start = 99, maximum start = 105, diff = 6
2D, Reduce pattern = 0, is allreduce = 0, B = 256, Pw = 16, Ph = 16, time = 908
minimum start = 99, maximum start = 105, diff = 6
2D, Reduce pattern = 0, is allreduce = 0, B = 256, Pw = 16, Ph = 16, time = 909
minimum start = 99, maximum start = 105, diff = 6
2D, Reduce pattern = 0, is allreduce = 0, B = 256, Pw = 16, Ph = 16, time = 909
minimum start = 99, maximum start = 105, diff = 6
2D, Reduce pattern = 0, is allreduce = 0, B = 256, Pw = 16, Ph = 16, time = 910
minimum start = 99, maximum start = 105, diff = 6
2D, Reduce pattern = 0, is allreduce = 1, B = 256, Pw = 16, Ph = 16, time = 1291
minimum start = 99, maximum start = 105, diff = 6
2D, Reduce pattern = 0, is allreduce = 1, B = 256, Pw = 16, Ph = 16, time = 1285
minimum start = 99, maximum start = 106, diff = 7
2D, Reduce pattern = 0, is allreduce = 1, B = 256, Pw = 16, Ph = 16, time = 1290
minimum start = 99, maximum start = 106, diff = 7
2D, Reduce pattern = 0, is allreduce = 1, B = 256, Pw = 16, Ph = 16, time = 1289
minimum start = 99, maximum start = 105, diff = 6
2D, Reduce pattern = 0, is allreduce = 1, B = 256, Pw = 16, Ph = 16, time = 1286
minimum start = 99, maximum start = 105, diff = 6
2D, Reduce pattern = 0, is allreduce = 0, B = 256, Pw = 32, Ph = 32, time = 1106
minimum start = 125, maximum start = 137, diff = 12
2D, Reduce pattern = 0, is allreduce = 0, B = 256, Pw = 32, Ph = 32, time = 1109
minimum start = 125, maximum start = 138, diff = 13
2D, Reduce pattern = 0, is allreduce = 0, B = 256, Pw = 32, Ph = 32, time = 1105
minimum start = 125, maximum start = 137, diff = 12
2D, Reduce pattern = 0, is allreduce = 0, B = 256, Pw = 32, Ph = 32, time = 1112
minimum start = 125, maximum start = 137, diff = 12
2D, Reduce pattern = 0, is allreduce = 0, B = 256, Pw = 32, Ph = 32, time = 1111
minimum start = 125, maximum start = 137, diff = 12
2D, Reduce pattern = 0, is allreduce = 1, B = 256, Pw = 32, Ph = 32, time = 1524
minimum start = 125, maximum start = 137, diff = 12
2D, Reduce pattern = 0, is allreduce = 1, B = 256, Pw = 32, Ph = 32, time = 1528
minimum start = 125, maximum start = 137, diff = 12
2D, Reduce pattern = 0, is allreduce = 1, B = 256, Pw = 32, Ph = 32, time = 1529
minimum start = 126, maximum start = 137, diff = 11
2D, Reduce pattern = 0, is allreduce = 1, B = 256, Pw = 32, Ph = 32, time = 1524
minimum start = 125, maximum start = 138, diff = 13
2D, Reduce pattern = 0, is allreduce = 1, B = 256, Pw = 32, Ph = 32, time = 1519
minimum start = 125, maximum start = 137, diff = 12
2D, Reduce pattern = 0, is allreduce = 0, B = 256, Pw = 64, Ph = 64, time = 1719
minimum start = 177, maximum start = 201, diff = 24
2D, Reduce pattern = 0, is allreduce = 0, B = 256, Pw = 64, Ph = 64, time = 1734
minimum start = 177, maximum start = 201, diff = 24
2D, Reduce pattern = 0, is allreduce = 0, B = 256, Pw = 64, Ph = 64, time = 1702
minimum start = 177, maximum start = 201, diff = 24
2D, Reduce pattern = 0, is allreduce = 0, B = 256, Pw = 64, Ph = 64, time = 1742
minimum start = 177, maximum start = 201, diff = 24
2D, Reduce pattern = 0, is allreduce = 0, B = 256, Pw = 64, Ph = 64, time = 1737
minimum start = 177, maximum start = 201, diff = 24
2D, Reduce pattern = 0, is allreduce = 1, B = 256, Pw = 64, Ph = 64, time = 2212
minimum start = 177, maximum start = 201, diff = 24
2D, Reduce pattern = 0, is allreduce = 1, B = 256, Pw = 64, Ph = 64, time = 2206
minimum start = 177, maximum start = 201, diff = 24
2D, Reduce pattern = 0, is allreduce = 1, B = 256, Pw = 64, Ph = 64, time = 2213
minimum start = 177, maximum start = 201, diff = 24
2D, Reduce pattern = 0, is allreduce = 1, B = 256, Pw = 64, Ph = 64, time = 2194
minimum start = 177, maximum start = 201, diff = 24
2D, Reduce pattern = 0, is allreduce = 1, B = 256, Pw = 64, Ph = 64, time = 2214
minimum start = 177, maximum start = 201, diff = 24
2D, Reduce pattern = 0, is allreduce = 0, B = 256, Pw = 128, Ph = 128, time = 2054
minimum start = 283, maximum start = 330, diff = 47
2D, Reduce pattern = 0, is allreduce = 0, B = 256, Pw = 128, Ph = 128, time = 2060
minimum start = 283, maximum start = 329, diff = 46
2D, Reduce pattern = 0, is allreduce = 0, B = 256, Pw = 128, Ph = 128, time = 2048
minimum start = 283, maximum start = 330, diff = 47
2D, Reduce pattern = 0, is allreduce = 0, B = 256, Pw = 128, Ph = 128, time = 2079
minimum start = 283, maximum start = 330, diff = 47
2D, Reduce pattern = 0, is allreduce = 0, B = 256, Pw = 128, Ph = 128, time = 2058
minimum start = 283, maximum start = 330, diff = 47
2D, Reduce pattern = 0, is allreduce = 1, B = 256, Pw = 128, Ph = 128, time = 2641
minimum start = 282, maximum start = 330, diff = 48
2D, Reduce pattern = 0, is allreduce = 1, B = 256, Pw = 128, Ph = 128, time = 2636
minimum start = 283, maximum start = 329, diff = 46
2D, Reduce pattern = 0, is allreduce = 1, B = 256, Pw = 128, Ph = 128, time = 2639
minimum start = 282, maximum start = 329, diff = 47
2D, Reduce pattern = 0, is allreduce = 1, B = 256, Pw = 128, Ph = 128, time = 2655
minimum start = 281, maximum start = 330, diff = 49
2D, Reduce pattern = 0, is allreduce = 1, B = 256, Pw = 128, Ph = 128, time = 2663
minimum start = 283, maximum start = 330, diff = 47
2D, Reduce pattern = 0, is allreduce = 0, B = 256, Pw = 256, Ph = 256, time = 2865
minimum start = 564, maximum start = 607, diff = 43
2D, Reduce pattern = 0, is allreduce = 0, B = 256, Pw = 256, Ph = 256, time = 2850
minimum start = 564, maximum start = 607, diff = 43
2D, Reduce pattern = 0, is allreduce = 0, B = 256, Pw = 256, Ph = 256, time = 2874
minimum start = 562, maximum start = 607, diff = 45
2D, Reduce pattern = 0, is allreduce = 0, B = 256, Pw = 256, Ph = 256, time = 2845
minimum start = 562, maximum start = 607, diff = 45
2D, Reduce pattern = 0, is allreduce = 0, B = 256, Pw = 256, Ph = 256, time = 2861
minimum start = 566, maximum start = 607, diff = 41
2D, Reduce pattern = 0, is allreduce = 1, B = 256, Pw = 256, Ph = 256, time = 3721
minimum start = 564, maximum start = 607, diff = 43
2D, Reduce pattern = 0, is allreduce = 1, B = 256, Pw = 256, Ph = 256, time = 3723
minimum start = 568, maximum start = 607, diff = 39
2D, Reduce pattern = 0, is allreduce = 1, B = 256, Pw = 256, Ph = 256, time = 3714
minimum start = 568, maximum start = 608, diff = 40
2D, Reduce pattern = 0, is allreduce = 1, B = 256, Pw = 256, Ph = 256, time = 3725
minimum start = 562, maximum start = 607, diff = 45
2D, Reduce pattern = 0, is allreduce = 1, B = 256, Pw = 256, Ph = 256, time = 3704
minimum start = 568, maximum start = 607, diff = 39
